{
	"object": "whatsapp_business_account",
	"entry": [{
		"id": "103452129066494",
		"changes": [{
			"value": {
				"messaging_product": "whatsapp",
				"metadata": {
					"display_phone_number": "15550236912",
					"phone_number_id": "109045511832167"
				},
				"contacts": [{
					"profile": {
						"name": "Ricki"
					},
					"wa_id": "593984252217"
				}],
				"messages": [{
					"from": "593984252217",
					"id": "wamid.HBgMNTkzOTg0MjUyMjE3FQIAEhgUM0VCMEY4RkZFQTEyNDNFQjNGNDQA",
					"timestamp": "1654564059",
					"text": {
						"body": "Test  MO 2"
					},
					"type": "text"
				}]
			},
			"field": "messages"
		}]
	}]
}
