{
  "account": "urbapark",
  "lines": ["593986019740"],
  "types": [""],
  "modules": [
    {
      "name": "main",
      "path": "./modules/urbaparkMenup.js"
    },
    {
      "name": "urbaparkMenu1",
      "path": "./modules/urbaparkMenu1.js"
    },
    {
      "name": "urbaparkMenu2",
      "path": "./modules/urbaparkMenu2.js"
    },
    {
      "name": "urbaparkMenu3",
      "path": "./modules/urbaparkMenu3.js"
    },
    {
      "name": "urbaparkMenu4",
      "path": "./modules/urbaparkMenu4.js"
    },
    {
      "name": "urbaparkMenu5",
      "path": "./modules/urbaparkMenu5.js"
    }
    
  ]
}
